<svg width="103" height="103" viewBox="0 0 103 103" fill="none" xmlns="http://www.w3.org/2000/svg">
<circle cx="51.5" cy="51.5" r="51.5" fill="#E0E0E0"/>
<path d="M30.316 47.2H32.136V55.46H37.26V57H30.316V47.2ZM43.7971 57.14C42.7985 57.14 41.8978 56.9253 41.0951 56.496C40.2925 56.0573 39.6625 55.4553 39.2051 54.69C38.7478 53.9153 38.5191 53.052 38.5191 52.1C38.5191 51.148 38.7478 50.2893 39.2051 49.524C39.6625 48.7493 40.2925 48.1473 41.0951 47.718C41.8978 47.2793 42.7985 47.06 43.7971 47.06C44.7958 47.06 45.6965 47.2793 46.4991 47.718C47.3018 48.1473 47.9318 48.7447 48.3891 49.51C48.8465 50.2753 49.0751 51.1387 49.0751 52.1C49.0751 53.0613 48.8465 53.9247 48.3891 54.69C47.9318 55.4553 47.3018 56.0573 46.4991 56.496C45.6965 56.9253 44.7958 57.14 43.7971 57.14ZM43.7971 55.544C44.4505 55.544 45.0385 55.3993 45.5611 55.11C46.0838 54.8113 46.4945 54.4007 46.7931 53.878C47.0918 53.346 47.2411 52.7533 47.2411 52.1C47.2411 51.4467 47.0918 50.8587 46.7931 50.336C46.4945 49.804 46.0838 49.3933 45.5611 49.104C45.0385 48.8053 44.4505 48.656 43.7971 48.656C43.1438 48.656 42.5558 48.8053 42.0331 49.104C41.5105 49.3933 41.0998 49.804 40.8011 50.336C40.5025 50.8587 40.3531 51.4467 40.3531 52.1C40.3531 52.7533 40.5025 53.346 40.8011 53.878C41.0998 54.4007 41.5105 54.8113 42.0331 55.11C42.5558 55.3993 43.1438 55.544 43.7971 55.544ZM58.3963 51.988H60.1183V55.894C59.6143 56.2953 59.0263 56.6033 58.3543 56.818C57.6823 57.0327 56.9916 57.14 56.2823 57.14C55.2836 57.14 54.3829 56.9253 53.5803 56.496C52.7776 56.0573 52.1476 55.4553 51.6903 54.69C51.2329 53.9247 51.0043 53.0613 51.0043 52.1C51.0043 51.1387 51.2329 50.2753 51.6903 49.51C52.1476 48.7447 52.7776 48.1473 53.5803 47.718C54.3923 47.2793 55.3023 47.06 56.3103 47.06C57.1316 47.06 57.8783 47.1953 58.5503 47.466C59.2223 47.7367 59.7869 48.1333 60.2443 48.656L59.0963 49.776C58.3496 49.0293 57.4489 48.656 56.3943 48.656C55.7036 48.656 55.0876 48.8007 54.5463 49.09C54.0143 49.3793 53.5943 49.7853 53.2863 50.308C52.9876 50.8307 52.8383 51.428 52.8383 52.1C52.8383 52.7533 52.9876 53.3413 53.2863 53.864C53.5943 54.3867 54.0143 54.7973 54.5463 55.096C55.0876 55.3947 55.6989 55.544 56.3803 55.544C57.1456 55.544 57.8176 55.376 58.3963 55.04V51.988ZM67.7967 57.14C66.7981 57.14 65.8974 56.9253 65.0947 56.496C64.2921 56.0573 63.6621 55.4553 63.2047 54.69C62.7474 53.9153 62.5187 53.052 62.5187 52.1C62.5187 51.148 62.7474 50.2893 63.2047 49.524C63.6621 48.7493 64.2921 48.1473 65.0947 47.718C65.8974 47.2793 66.7981 47.06 67.7967 47.06C68.7954 47.06 69.6961 47.2793 70.4987 47.718C71.3014 48.1473 71.9314 48.7447 72.3887 49.51C72.8461 50.2753 73.0747 51.1387 73.0747 52.1C73.0747 53.0613 72.8461 53.9247 72.3887 54.69C71.9314 55.4553 71.3014 56.0573 70.4987 56.496C69.6961 56.9253 68.7954 57.14 67.7967 57.14ZM67.7967 55.544C68.4501 55.544 69.0381 55.3993 69.5607 55.11C70.0834 54.8113 70.4941 54.4007 70.7927 53.878C71.0914 53.346 71.2407 52.7533 71.2407 52.1C71.2407 51.4467 71.0914 50.8587 70.7927 50.336C70.4941 49.804 70.0834 49.3933 69.5607 49.104C69.0381 48.8053 68.4501 48.656 67.7967 48.656C67.1434 48.656 66.5554 48.8053 66.0327 49.104C65.5101 49.3933 65.0994 49.804 64.8007 50.336C64.5021 50.8587 64.3527 51.4467 64.3527 52.1C64.3527 52.7533 64.5021 53.346 64.8007 53.878C65.0994 54.4007 65.5101 54.8113 66.0327 55.11C66.5554 55.3993 67.1434 55.544 67.7967 55.544Z" fill="black"/>
</svg>
